 <svg id="edit" viewBox="0 0 65.159375 65.676541">
    <g transform="translate(-10.348983,-7.630381)">
        <path
       style="fill:#ffffff;stroke-width:0.99999994"
       d="M 177.23438,33.851562 C 158.41578,34.525499 174.5038,62.54443 147.35547,66.537109 117.39869,70.942825 129.43238,32.17666 102.78906,46.5625 76.145743,60.948339 115.16121,72.150431 95.044922,94.78125 74.928638,117.41207 59.229334,79.980765 48.066406,108.12695 c -11.162927,28.14619 25.925657,11.64931 25.0625,41.91602 -0.863157,30.26671 -36.950878,11.6833 -27.410156,40.41992 9.540722,28.73662 27.346775,-7.74047 46.140625,16 18.793855,23.74047 -20.795788,32.70116 4.984375,48.58203 25.78016,15.88087 15.97385,-23.50814 45.63086,-17.40234 29.65701,6.1058 5.0901,38.41743 35.04687,34.01172 29.95678,-4.40572 -2.87378,-28.27627 23.76954,-42.66211 26.64332,-14.38584 28.5927,26.15816 48.70898,3.52734 20.11628,-22.63082 -20.37777,-19.8128 -9.21484,-47.95898 11.16292,-28.14619 38.71887,1.65929 39.58203,-28.60743 0.86315,-30.26671 -28.346,-2.07978 -37.88672,-30.8164 -9.54072,-28.736624 30.72549,-23.61695 11.93164,-47.357423 -18.79385,-23.740473 -23.04992,16.626965 -48.83008,0.746094 -25.78016,-15.880872 8.35623,-37.841462 -21.30078,-43.947266 -2.78034,-0.572419 -5.10012,-0.79628 -7.04687,-0.726563 z m -17.5918,59.382813 A 59.642825,59.642825 0 0 1 219.28516,152.87695 59.642825,59.642825 0 0 1 159.64258,212.51953 59.642825,59.642825 0 0 1 100,152.87695 59.642825,59.642825 0 0 1 159.64258,93.234375 Z"
       transform="scale(0.26458333)"
       id="path3731"/>
    </g>
  </svg>
